{
    "name": "DMVLocation",
    "fields": [
        {
            "fieldName": "name",
            "fieldType": "String"
        },
        {
            "fieldName": "address",
            "fieldType": "String"
        },
        {
            "fieldName": "city",
            "fieldType": "String"
        },
        {
            "fieldName": "state",
            "fieldType": "String"
        },
        {
            "fieldName": "postalCode",
            "fieldType": "String"
        },
        {
            "fieldName": "country",
            "fieldType": "String"
        },
        {
            "fieldName": "mainPhone",
            "fieldType": "String"
        },
        {
            "fieldName": "faxNumber",
            "fieldType": "String"
        },
        {
            "fieldName": "weekdaysHrs",
            "fieldType": "String"
        },
        {
            "fieldName": "saturdayHrs",
            "fieldType": "String"
        },
        {
            "fieldName": "directions",
            "fieldType": "String"
        }
    ],
    "relationships": [],
    "changelogDate": "20190307140928",
    "entityTableName": "dmv_location",
    "dto": "mapstruct",
    "pagination": "no",
    "service": "serviceImpl",
    "jpaMetamodelFiltering": false,
    "fluentMethods": true,
    "clientRootFolder": "",
    "applications": "*"
}