{
    "name": "Address",
    "fields": [
        {
            "fieldName": "addr",
            "fieldType": "String"
        },
        {
            "fieldName": "street",
            "fieldType": "String"
        },
        {
            "fieldName": "city",
            "fieldType": "String",
            "fieldValidateRules": [
                "required"
            ]
        },
        {
            "fieldName": "zip",
            "fieldType": "String",
            "fieldValidateRules": [
                "required"
            ]
        },
        {
            "fieldName": "region",
            "fieldType": "String"
        },
        {
            "fieldName": "state",
            "fieldType": "String",
            "fieldValidateRules": [
                "required"
            ]
        },
        {
            "fieldName": "country",
            "fieldType": "String",
            "fieldValidateRules": [
                "required"
            ]
        },
        {
            "fieldName": "createdAt",
            "fieldType": "ZonedDateTime"
        },
        {
            "fieldName": "updatedAt",
            "fieldType": "ZonedDateTime"
        }
    ],
    "relationships": [],
    "changelogDate": "20180929145709",
    "entityTableName": "address",
    "dto": "mapstruct",
    "pagination": "no",
    "service": "serviceImpl",
    "jpaMetamodelFiltering": false,
    "fluentMethods": true,
    "clientRootFolder": "",
    "applications": "*",
    "angularJSSuffix": "mv"
}