{
    "name": "Business",
    "fields": [
        {
            "fieldName": "name",
            "fieldType": "String",
            "fieldValidateRules": [
                "required"
            ]
        },
        {
            "fieldName": "discount",
            "fieldType": "String",
            "fieldValidateRules": [
                "required"
            ]
        },
        {
            "fieldName": "website",
            "fieldType": "String"
        },
        {
            "fieldName": "createdAt",
            "fieldType": "ZonedDateTime"
        },
        {
            "fieldName": "updatedAt",
            "fieldType": "ZonedDateTime"
        },
        {
            "fieldName": "verifiedAt",
            "fieldType": "ZonedDateTime"
        },
        {
            "fieldName": "isVerified",
            "fieldType": "Boolean"
        },
        {
            "fieldName": "isActive",
            "fieldType": "Boolean"
        },
        {
            "fieldName": "isDeleted",
            "fieldType": "Boolean"
        }
    ],
    "relationships": [
        {
            "relationshipType": "one-to-one",
            "relationshipName": "profile",
            "otherEntityName": "profile",
            "otherEntityField": "id",
            "ownerSide": true,
            "otherEntityRelationshipName": "business"
        },
        {
            "relationshipType": "one-to-one",
            "relationshipName": "contact",
            "otherEntityName": "contact",
            "otherEntityField": "id",
            "ownerSide": true,
            "otherEntityRelationshipName": "business"
        },
        {
            "relationshipType": "one-to-one",
            "relationshipName": "address",
            "otherEntityName": "address",
            "otherEntityField": "id",
            "ownerSide": true,
            "otherEntityRelationshipName": "business"
        },
        {
            "relationshipType": "many-to-many",
            "otherEntityRelationshipName": "business",
            "relationshipName": "category",
            "otherEntityName": "category",
            "otherEntityField": "name",
            "ownerSide": true
        }
    ],
    "changelogDate": "20180929145712",
    "entityTableName": "business",
    "dto": "mapstruct",
    "pagination": "pagination",
    "service": "serviceImpl",
    "jpaMetamodelFiltering": false,
    "fluentMethods": true,
    "clientRootFolder": "",
    "applications": "*",
    "angularJSSuffix": "mv"
}