{
  "result": [{
      "slots": 1,
      "id": "12334",
      "npn": "1234",
      "firstName": "first",
      "lastName": "last",
      "address": "address ",
      "city": "city",
      "state": "state",
      "duration": "MONTHLY",
      "validTill": "2018-08-20T12:00:00",
      "zip": "1234",
      "score": 987
    }

  ],
  "total": 100
}
